Location Name,Latitude,Longitude,Elevation,Record Type,Color
South Pole,-90.00,0.00,2800,Ice,red
NUS08-4,-82.82,18.90,2552,Ice,red
NUS08-5,-82.63,17.87,2554,Ice,red
NUS07-7,-82.07,54.88,3725,Ice,red
"Meserve Glacier, New Byrd Station",-80.02,-119.52,1530,Ice,red
"Meserve Glacier, New Byrd Station",-80.02,-119.52,1530,Ice,red
WDC05Q,-79.47,-112.07,1759,Ice,red
WDC05A,-79.47,-112.07,1759,Ice,red
NUS07-5,-78.65,35.63,3619,Ice,red
Vostok,-78.47,106.80,3488,Ice,red
Vostok,-78.47,106.80,3488,Ice,red
Vostok,-78.47,106.80,3488,Ice,red
Vostok,-78.47,106.80,3488,Ice,red
Vostok,-78.47,106.80,3488,Ice,red
Vostok,-78.47,106.80,3488,Ice,red
Vostok,-78.47,106.80,3488,Ice,red
PIG2010,-77.96,-95.96,1593,Ice,red
Erebus Glacier Tongue,-77.70,166.67,300,Ice,red
Dome C,-77.65,124.17,3240,Ice,red
Coats Land,-77.57,-25.37,1420,Ice,red
Coats Land,-77.25,-18.08,1720,Ice,red
Taylor Dome,-77.08,159.00,,Ice,red
Taylor Dome,-77.08,159.00,,Ice,red
THW2010,-76.95,-121.22,2020,Ice,red
DIV2010,-76.77,-101.74,1329,Ice,red
NUS07-2,-76.07,22.47,3582,Ice,red
"EPICA ice cores, Dome C",-75.10,123.35,3233,Ice,red
Dome C,-75.10,123.35,3233,Ice,red
"EPICA ice cores, Dome C",-75.10,123.35,3233,Ice,red
"EPICA ice cores, Dome C",-75.10,123.35,3233,Ice,red
Dome C,-75.05,123.58,3233,Ice,red
Dome C,-75.05,123.58,3233,Ice,red
Dome C,-75.05,123.58,3233,Ice,red
Dome C,-75.05,123.58,3233,Ice,red
NUS08-7,-74.88,1.60,2700,Ice,red
"Sea Ice, Gerlache Inlet, Terra Nova Bay",-74.71,164.19,,Ice,red
Dome C,-74.67,124.17,3240,Ice,red
Dome C,-74.67,124.17,3240,Ice,red
NUS07-1,-73.72,7.98,3174,Ice,red
Gomez,-73.58,-71.37,1400,Ice,red
B40,-70.00,0.07,2892,Ice,red
Law Dome [Dome Summit South (DSS)],-66.77,112.81,1370,Ice,red
Law Dome [Dome Summit South (DSS)],-66.77,112.81,1370,Ice,red
Law Dome [Dome Summit South (DSS)],-66.77,112.81,1370,Ice,red
Law Dome [Dome Summit South (DSS)],-66.77,112.81,1370,Ice,red
Law Dome [DSS-W20k],-66.77,112.35,,Ice,red
Law Dome [DSS99],-66.77,112.80,1390,Ice,red
Law Dome [DSS-W2k],-66.77,112.80,1390,Ice,red
Law Dome [BHD],-66.77,112.80,1390,Ice,red
Law Dome [BHD],-66.77,112.80,1390,Ice,red
Law Dome [DSS-W20k],-66.77,112.35,,Ice,red
Law Dome [DSS99],-66.77,112.80,1390,Ice,red
Law Dome [DSS-W2k],-66.77,112.80,1390,Ice,red
W10,-66.73,112.83,1390,Ice,red
Law Dome,-66.73,112.83,1370,Ice,red
Law Dome,-66.73,112.83,1390,Ice,red
Law Dome,-66.73,112.83,1370,Ice,red
Law Dome,-66.73,112.83,1370,Ice,red
Law Dome [DE08],-66.72,113.20,1250,Ice,red
Law Dome [DE08],-66.72,113.20,1250,Ice,red
Law Dome [DE08],-66.72,113.20,1250,Ice,red
Cape Prudhomme,-66.67,140.02,105,Ice,red
Sajama,-18.10,-68.88,6542,Ice,red
Sajama,-18.10,-68.88,6542,Ice,red
Illimani Glacier,-16.62,-68.07,6300,Ice,red
Illimani Glacier,-16.62,-68.07,6300,Ice,red
Quelccaya ,-13.90,-70.90,5600,Ice,red
Quelccaya ,-13.90,-70.90,5600,Ice,red
Col of Huascarán,-9.11,-77.61,6048,Ice,red
"Northern Icefield, Kilimajaro",-3.08,37.35,5795,Ice,red
"East
Rongbuk Glacier, Mt. Everest",28.04,86.97,6518,Ice,red
"East Rongbuk Glacier, Mt. Everest",28.05,87.60,6518,Ice,red
"East
Rongbuk Glacier, Mt. Everest",28.05,87.60,6518,Ice,red
"East
Rongbuk Glacier, Mt. Everest",28.05,87.60,6518,Ice,red
Dasuopu Glacier,28.37,85.76,7200,Ice,red
Naimona’nyi Glacier,30.44,81.29,6030,Ice,red
Puruogangri ice cap,33.86,89.81,5961,Ice,red
Puruogangri ice cap,33.92,89.08,6072,Ice,red
Guliya Ice Cap,35.28,81.48,6200,Ice,red
Guliya Ice Cap,35.29,81.50,6710,Ice,red
Dunde Ice Cap,38.10,96.41,5325,Ice,red
Inilchek Glacier,42.26,80.42,5120,Ice,red
Miaoergou Glacier,43.06,94.32,4512,Ice,red
Miaoergou Glacier,43.06,94.32,4512,Ice,red
Miaoergou Glacier,43.06,94.32,4512,Ice,red
Miaoergou Glacier,43.06,94.32,4512,Ice,red
"Col du Dôme, Mont Blanc Massif",45.83,7.00,4250,Ice,red
Mont Blanc,45.84,6.84,4304,Ice,red
Colle Gnifetti,45.89,7.85,4450,Ice,red
Colle Gnifetti,45.89,7.85,4450,Ice,red
Colle Gnifetti,45.93,7.87,4450,Ice,red
Mt. Ortles,46.51,10.54,3859,Ice,red
Jungfraujoch Glacier,46.53,7.98,3500,Ice,red
Belukha Glacier,49.81,86.58,4062,Ice,red
"Eclipse Icefield, St. Elias Mountains",60.51,139.47,3017,Ice,red
"Prospector-Russell Col (PRC), Mt. Logan, St. Elias Mountains",60.57,-140.20,5300,Ice,red
ACT2,66.00,-45.20,2408,Ice,red
ACT2,66.00,-45.20,2408,Ice,red
ACT11,66.50,-46.30,2148,Ice,red
D5,68.50,-42.90,2519,Ice,red
GISP,70.30,-44.58,2448,Ice,red
D4,71.40,-43.90,2799,Ice,red
Summit,72.57,-38.07,3238,Ice,red
GRIP,72.57,-37.62,3238,Ice,red
GRIP,72.57,-37.62,3238,Ice,red
GRIP,72.57,-37.62,3238,Ice,red
GRIP,72.57,-37.62,3238,Ice,red
GRIP,72.57,-37.62,3238,Ice,red
GRIP,72.57,-37.62,3238,Ice,red
Summit,72.58,-37.63,3230,Ice,red
Eurocore (2015),72.60,-38.30,3258,Ice,red
Summit (2015),72.60,-38.30,3258,Ice,red
Summit (2010),72.60,-38.30,3258,Ice,red
GISP2,72.77,-38.47,,Ice,red
Summit,72.92,-38.31,,Ice,red
GRIP,72.97,-38.07,3238,Ice,red
GISP2,72.97,-38.80,3208,Ice,red
Devon Ice Cap,75.00,-82.00,1860,Ice,red
Devon Ice Cap,75.00,-82.00,1860,Ice,red
Devon Ice Cap,75.00,-82.00,1860,Ice,red
Devon Ice Cap,75.00,-82.00,1860,Ice,red
Devon Ice Cap,75.00,-82.00,1860,Ice,red
NGRIP2,75.10,-42.32,2917,Ice,red
NGRIP2,75.10,-42.30,2917,Ice,red
Devon Ice Cap,75.30,-82.30,,Ice,red
Camp Century (Hole 3),77.17,-61.13,1885,Ice,red
North Greenland Eemian Ice Drilling (NEEM),77.45,-51.06,2450,Ice,red
North Greenland Eemian Ice Drilling (NEEM),77.45,-51.06,2450,Ice,red
North Greenland Eemian Ice Drilling (NEEM),77.50,-51.10,2454,Ice,red
Tunu2013,78.00,-33.90,2105,Ice,red
NGT_B19,78.00,-36.40,2270,Ice,red
Humboldt,78.50,-56.80,1985,Ice,red
Akademi Nauk,80.50,94.80,750,Ice,red
Dome Argus,-88.37,77.35,4093,Snow,yellow
Antarctic “virgin” site,-78.87,-111.32,1750,Snow,yellow
Howard Glacier,-77.69,163.14,920,Snow,yellow
Canada Glacier,-77.62,162.69,1610,Snow,yellow
Coats Land,-77.57,-25.37,1420,Snow,yellow
Coats Land,-77.57,-25.37,1420,Snow,yellow
Coats Land,-77.57,-25.37,1420,Snow,yellow
Dome Fuji,-77.30,39.78,3875,Snow,yellow
Coats Land,-77.25,-18.08,1720,Snow,yellow
Coats Land,-77.25,-18.08,1500,Snow,yellow
Dome Concordia,-75.10,123.33,3233,Snow,yellow
Dome C,-75.10,123.35,3233,Snow,yellow
Nansen Ice Sheet,-74.88,163.17,,Snow,yellow
McCarthy Ridge,-74.60,163.05,790,Snow,yellow
"McCarthy Ridge, Victoria Land",-74.53,162.93,700,Snow,yellow
"McCarthy Ridge, Victoria Land",-74.53,162.93,700,Snow,yellow
Mt. Melbourne,-74.53,164.75,416,Snow,yellow
Mt. Melbourne,-74.53,164.75,1188,Snow,yellow
Reeves Névé,-74.49,161.00,1544,Snow,yellow
Reeves Névé,-74.25,160.00,1901,Snow,yellow
Wood Bay,-74.22,165.50,,Snow,yellow
Tourmaline Plateau,-74.14,163.44,2005,Snow,yellow
Reeves Névé,-74.00,159.00,2109,Snow,yellow
"Styx Glacier plateau, Victoria Land",-73.87,163.70,1700,Snow,yellow
"Styx Glacier plateau, Victoria Land",-73.87,163.70,1700,Snow,yellow
"Hercules Névé, Victoria Land",-73.11,165.46,2960,Snow,yellow
"Hercules Névé, Victoria Land – Surface",-73.11,165.46,2960,Snow,yellow
"Hercules Névé, Victoria Land",-73.11,165.46,2960,Snow,yellow
"Hercules Névé, Victoria Land",-73.11,165.46,2960,Snow,yellow
"Hercules Névé, Victoria Land",-73.11,165.46,2960,Snow,yellow
Remote Site,-70.88,-64.95,1860,Snow,yellow
Lambert Glacier,-70.84,77.07,1850,Snow,yellow
Lambert Glacier,-70.84,77.07,1850,Snow,yellow
Dolleman Island,-70.58,-60.93,398,Snow,yellow
D55,-68.00,137.77,2000,Snow,yellow
Adelaide Island,-67.25,-68.50,,Snow,yellow
O’Higgins base,-63.33,-57.87,,Snow,yellow
Baishui NO.1 Glacier,27.10,100.20,4747,Snow,yellow
East Rongbuk Glacier,28.01,86.97,6525,Snow,yellow
"East Rongbuk Glacier, Mt. Everest",28.02,86.96,6523,Snow,yellow
"East
Rongbuk Glacier, Mt. Everest",28.02,86.96,6576,Snow,yellow
"East
Rongbuk Glacier, Mt. Everest",28.04,86.97,6518,Snow,yellow
"Gyabrag (Jiabula) Glacier, Mt. Cho Oyu",28.18,86.64,8201,Snow,yellow
Yala Glacier,28.23,85.62,5190,Snow,yellow
Kangwure Glacier,28.45,85.75,6140,Snow,yellow
Demula Glacier,29.37,97.00,5404,Snow,yellow
JiemaYangzong Glacier,30.21,81.16,5558 – 5797,Snow,yellow
Zhadang Glacier,30.47,90.65,5797,Snow,yellow
Zhadang Glacier,30.47,90.65,5758,Snow,yellow
Dongkemadi Glacier,33.01,92.01,5700,Snow,yellow
Dongkemadi Glacier,33.07,94.08,5700,Snow,yellow
Xiaodongkemadi Glacier,33.07,92.09,5714,Snow,yellow
Xiaodongkemadi Glacier,33.08,92.06,5760,Snow,yellow
Hariqin Glacier,33.13,92.10,5658,Snow,yellow
Guoqu Glacier,33.58,91.18,5765,Snow,yellow
Zangsegangri Glacier,34.30,85.85,6226,Snow,yellow
Yuzhufeng Glacier,35.65,94.23,4342–4720,Snow,yellow
Yuzhufeng Glacier,35.65,94.23,5473,Snow,yellow
Meikuang Glacier,35.67,94.19,5150,Snow,yellow
Meikuang Glacier,35.67,94.19,5300,Snow,yellow
Meikuang Glacier,35.67,94.19,5057,Snow,yellow
Yuzhufeng Glacier,35.68,94.23,5467,Snow,yellow
Muztagata Glacier,38.28,75.01,6365,Snow,yellow
Qiyi Glacier,39.23,97.75,3883–4750,Snow,yellow
Qiyi Glacier,39.24,97.76,4770,Snow,yellow
Laohugou No.12,39.33,96.57,4000–5010,Snow,yellow
Laohugou No.12,39.33,96.57,4000–5010,Snow,yellow
Laohugou NO.12 Glacier ,39.43,96.56,5026,Snow,yellow
Miaoergou Glacier,43.06,94.32,4512,Snow,yellow
"98-NH-2 (Northeastern, USA)",43.08,-71.17,,Snow,yellow
Ürümqi glacier No. 1,43.10,86.80,4130,Snow,yellow
Tienshan NO.1 Glacier,43.11,86.81,4063,Snow,yellow
"98-NYS-2 (Northeastern, USA)",43.16,-74.14,,Snow,yellow
"98-NYS-3 (Northeastern, USA)",43.84,-75.77,,Snow,yellow
"98-NH-1 (Northeastern, USA)",44.02,-71.49,,Snow,yellow
"98-VT-1 (Northeastern, USA)",44.20,-73.36,,Snow,yellow
98-ONT-4 (Eastern Ontario),44.50,-77.85,,Snow,yellow
"98-VT-3 (Northeastern, USA)",44.73,-72.49,,Snow,yellow
98-ONT-5 (Eastern Ontario),44.73,-76.66,,Snow,yellow
"98-ME-1 (Northeastern, USA)",44.82,-69.76,,Snow,yellow
08-ONT-1 (Eastern Ontario),44.86,-75.55,,Snow,yellow
98-ONT-3 (Eastern Ontario),45.09,-78.01,,Snow,yellow
98-ONT-2 (Eastern Ontario),45.10,-77.07,,Snow,yellow
97-QC-2 (Montréal-Québec City transect),45.35,-73.15,,Snow,yellow
98-QC-1 (Montréal-Québec City),45.42,-71.12,,Snow,yellow
97-QC-1 (Montréal-Québec City transect),45.49,-73.04,,Snow,yellow
97-QC-6 (Montréal-Québec City transect),45.52,-70.83,,Snow,yellow
98-NS-1 (Maritime),45.67,-63.53,,Snow,yellow
97-QC-21 (Montréal-Québec City transect),45.93,-71.94,,Snow,yellow
97-QC-22 (Montréal-Québec City transect),45.94,-75.83,,Snow,yellow
97-QC-23 (Montréal-Québec City transect),45.95,-75.10,,Snow,yellow
98-NB-2 (Maritime),46.09,-65.21,,Snow,yellow
97-QC-7 (Montréal-Québec City transect),46.13,-70.85,,Snow,yellow
97-QC-5A (Montréal-Québec City transect),46.21,-72.39,,Snow,yellow
97-QC-8 (Montréal-Québec City transect),46.33,-70.55,,Snow,yellow
Monte Pelmo Massif,46.41,12.12,~3000,Snow,yellow
98-NB-1 (Maritime),46.54,-67.17,,Snow,yellow
97-QC-3 (Montréal-Québec City transect),46.67,-73.90,,Snow,yellow
98-NB-3 (Maritime),46.78,-64.96,,Snow,yellow
Musidao Glacier,47.01,85.55,3605,Snow,yellow
97-QC-13 (Montréal-Québec City transect),47.17,-70.88,,Snow,yellow
97-QC-20 (Montréal-Québec City transect),47.20,-72.98,,Snow,yellow
97-QC-9 (North Shore-Gaspé transect),47.48,-69.39,,Snow,yellow
98-NB-5 (Maritime),47.70,-65.04,,Snow,yellow
"Cunzhuangqian, Altay",47.73,88.07,800,Snow,yellow
"Gebishangpo, Altay",47.73,88.07,800,Snow,yellow
"Zhengceng, Altay",47.73,88.07,800,Snow,yellow
97-QC-14 (North Shore-Gaspé transect),47.75,-70.01,,Snow,yellow
98-QC-7 (Northshore),47.75,-70.01,,Snow,yellow
"White Iron Lake, Ely",47.87,-91.80,,Snow,yellow
97-QC-15 (North Shore-Gaspé transect),48.35,-69.45,,Snow,yellow
97-QC-11 (North Shore-Gaspé transect),48.37,-67.29,,Snow,yellow
98-QC-2 (Gaspé),48.44,-66.02,,Snow,yellow
97-QC-19 (North Shore-Gaspé transect),48.64,-71.19,,Snow,yellow
98-QC-6 (Gaspé),48.82,-64.27,,Snow,yellow
98-QC-5 (Gaspé),48.87,-65.09,,Snow,yellow
98-QC-3 (Gaspé),48.95,-66.13,,Snow,yellow
97-QC-12 (North Shore-Gaspé transect),48.95,-66.13,,Snow,yellow
97-QC-16 (North Shore-Gaspé transect),49.19,-69.44,,Snow,yellow
97-QC-18 (North Shore-Gaspé transect),49.48,-68.54,,Snow,yellow
97-QC-17 (North Shore-Gaspé transect),49.72,-68.72,,Snow,yellow
98-QC-11 (Northshore),49.72,-68.75,,Snow,yellow
98-QC-12 (Northshore),50.19,-66.68,,Snow,yellow
98-QC-14 (Northshore),50.27,-64.23,,Snow,yellow
98-QC-13 (Northshore),50.28,-63.30,,Snow,yellow
98-QC-10 (Northshore),50.66,-68.81,,Snow,yellow
98-QC-9 (Northshore) ,51.10,-68.34,,Snow,yellow
98-QC-8 (Northshore),51.49,-68.23,,Snow,yellow
Hudson Bay,58.77,-94.17,,Snow,yellow
Point of Woods,58.83,-94.20,,Snow,yellow
"Prospector-Russell Col (PRC), Mt. Logan, St. Elias Mountains",60.57,-140.20,5300,Snow,yellow
Kahiltna glacier,63.00,-151.00,,Snow,yellow
20D (near Dye 3),65.01,-44.87,2615,Snow,yellow
Dye 3,65.18,-43.83,2480,Snow,yellow
Dye 3,65.18,-43.83,2480,Snow,yellow
Dye 3,65.18,-43.83,2479,Snow,yellow
Dye 3,65.18,-43.83,2479,Snow,yellow
Dye 3,65.18,-43.83,2479,Snow,yellow
Dye 3,65.18,-43.83,2480,Snow,yellow
Dye 3,65.18,-43.83,2479,Snow,yellow
Dye 3,65.18,-43.83,2480,Snow,yellow
Barrow environment observation (BEO) site,71.30,-156.77,5,Snow,yellow
Barrow far-shore site (FSS),71.30,-156.77,5,Snow,yellow
Barrow near-shore site (NSS),71.30,-156.77,5,Snow,yellow
"Summit, ATM",72.33,-38.75,3270,Snow,yellow
"Summit, ATM",72.33,-38.75,3270,Snow,yellow
Summit,72.33,-38.45,3270,Snow,yellow
"Summit, ATM",72.33,-38.75,3270,Snow,yellow
Summit,72.58,-37.63,3230,Snow,yellow
Summit,72.58,-37.63,3230,Snow,yellow
Summit,72.58,-37.63,3230,Snow,yellow
Summit,72.97,-38.07,3238,Snow,yellow
Summit,72.97,-38.07,3238,Snow,yellow
"Resolute, Cornwallis Island",74.72,-94.98,,Snow,yellow
NGRIP,75.10,-42.30,2959,Snow,yellow
Devon Ice Cap,75.37,-82.67,1820,Snow,yellow
"CHINARE, Ice station 06",76.25,179.60,0,Snow,yellow
Gret Gletscher,76.77,-58.87,1800,Snow,yellow
North Greenland Eemian Ice Drilling (NEEM),77.45,-51.06,2450,Snow,yellow
Commonwealth Glacier,77.54,163.05,700,Snow,yellow
Austre Lovénbreen Glacier,78.85,12.18,450,Snow,yellow
Austre Lovénbreen Glacier,78.87,12.12,300,Snow,yellow
Austre Lovénbreen Glacier,78.87,12.12,350,Snow,yellow
Austre Lovénbreen Glacier,78.87,12.13,250,Snow,yellow
Austre Lovénbreen Glacier,78.88,12.15,200,Snow,yellow
"CHINARE, Ice station 01",78.98,-169.13,0,Snow,yellow
"Eureka, Ellesmere Island",80.00,-85.85,,Snow,yellow
Agassiz Ice Cap,80.67,-73.50,1800,Snow,yellow
Ice floes,81.72,-3.52,,Snow,yellow
"CHINARE, Long-term ice station",82.65,-166.98,0,Snow,yellow
Ice Camp SWAN [north of Ellesmere Island],83.94,-61.10,,Snow,yellow
North Pole,88.02,-82.48,,Snow,yellow
North Pole,88.10,-82.62,,Snow,yellow
North Pole,88.28,-81.67,,Snow,yellow
North Pole,88.50,-80.48,,Snow,yellow
North Pole,88.68,-79.42,,Snow,yellow
North Pole,88.88,-80.53,,Snow,yellow
North Pole,89.20,-70.37,,Snow,yellow
North Pole,89.42,-69.87,,Snow,yellow
North Pole,89.82,-72.52,,Snow,yellow
North Pole,90.00,0.00,,Snow,yellow
"Styx Glacier plateau, Victoria Land",-73.87,163.70,1720,Snow/Ice,green
"Hercules Névé, Victoria Land – 2.5 m depth",-73.11,165.46,2960,Snow/ice,green
"Hercules Névé, Victoria Land – 2 m depth",-73.11,165.46,2960,Snow/ice,green
"Hercules Névé, Victoria Land – 1 m depth",-73.11,165.46,2960,Snow/ice,green
Mont Blanc,45.83,6.87,4304,Snow/Ice,green
Colle Gnifetti,45.93,7.87,4450,Snow/Ice,green
"Combatant Col, Mt. Waddington",51.39,-125.26,3000,Snow/Ice,green
GISP2,72.33,-38.75,3190,Snow/Ice,green
"Summit, ATM",72.33,-38.75,3190,Snow/Ice,green
Summit,72.57,-37.62,3238,Snow/Ice,green
